{
  "meta": {
    "total": 13,
    "per_page": 10,
    "current_page": 1,
    "last_page": 2,
    "from": 1,
    "to": 10,
    "path": "http://localhost/api/users",
    "links": [
      {
        "url": "https://example.com/",
        "label": "string",
        "active": true
      }
    ]
  },
  "links": {
    "first": "http://localhost/api/users?page=1",
    "last": "http://localhost/api/users?page=5",
    "prev": "http://localhost/api/users?page=1",
    "next": "http://localhost/api/users?page=3"
  },
  "data": [
    {
      "id": 1,
      "btnName": "イベント情報 $page-3",
      "message": "FLORAグルメフェスタ in レジデンス新地 8/19(土) 開催",
      "description": "このたび、福島県新地町に葬祭会館【フローラメモリア",
      "date": "2023-10-23",
      "isRead": false
    },
    {
      "id": 2,
      "btnName": "イベント情報 $page-3",
      "message": "FLORAグルメフェスタ in レジデンス新地 8/19(土) 開催",
      "description": "このたび、福島県新地町に葬祭会館【フローラメモリア",
      "date": "2023-10-23",
      "isRead": false
    },
    {
      "id": 3,
      "btnName": "イベント情報 $page-3",
      "message": "FLORAグルメフェスタ in レジデンス新地 8/19(土) 開催",
      "description": "このたび、福島県新地町に葬祭会館【フローラメモリア",
      "date": "2023-10-23",
      "isRead": false
    },
    {
      "id": 4,
      "btnName": "イベント情報 $page-3",
      "message": "FLORAグルメフェスタ in レジデンス新地 8/19(土) 開催",
      "description": "このたび、福島県新地町に葬祭会館【フローラメモリア",
      "date": "2023-10-23",
      "isRead": false
    },
    {
      "id": 5,
      "btnName": "イベント情報 $page-3",
      "message": "FLORAグルメフェスタ in レジデンス新地 8/19(土) 開催",
      "description": "このたび、福島県新地町に葬祭会館【フローラメモリア",
      "date": "2023-10-23",
      "isRead": false
    },
    {
      "id": 6,
      "btnName": "イベント情報 $page-3",
      "message": "FLORAグルメフェスタ in レジデンス新地 8/19(土) 開催",
      "description": "このたび、福島県新地町に葬祭会館【フローラメモリア",
      "date": "2023-10-23",
      "isRead": false
    },
    {
      "id": 7,
      "btnName": "イベント情報 $page-3",
      "message": "FLORAグルメフェスタ in レジデンス新地 8/19(土) 開催",
      "description": "このたび、福島県新地町に葬祭会館【フローラメモリア",
      "date": "2023-10-23",
      "isRead": false
    },
    {
      "id": 8,
      "btnName": "イベント情報 $page-3",
      "message": "FLORAグルメフェスタ in レジデンス新地 8/19(土) 開催",
      "description": "このたび、福島県新地町に葬祭会館【フローラメモリア",
      "date": "2023-10-23",
      "isRead": false
    },
    {
      "id": 9,
      "btnName": "イベント情報 $page-3",
      "message": "FLORAグルメフェスタ in レジデンス新地 8/19(土) 開催",
      "description": "このたび、福島県新地町に葬祭会館【フローラメモリア",
      "date": "2023-10-23",
      "isRead": false
    },
    {
      "id": 10,
      "btnName": "イベント情報 $page-3",
      "message": "FLORAグルメフェスタ in レジデンス新地 8/19(土) 開催",
      "description": "このたび、福島県新地町に葬祭会館【フローラメモリア",
      "date": "2023-10-23",
      "isRead": false
    }
  ]
}
