{
  "meta": {
    "total": 13,
    "per_page": 10,
    "current_page": 1,
    "last_page": 2,
    "from": 1,
    "to": 10,
    "path": "http://localhost/api/users",
    "links": [
      {
        "url": "https://example.com/",
        "label": "string",
        "active": true
      }
    ]
  },
  "links": {
    "first": "http://localhost/api/users?page=1",
    "last": "http://localhost/api/users?page=5",
    "prev": "http://localhost/api/users?page=1",
    "next": "http://localhost/api/users?page=3"
  },
  "data": [
    {
      "id": 1,
      "message": "弔事",
      "product": "喪服",
      "price": 13200.0,
      "date": "2023-10-10"
    },
    {
      "id": 2,
      "message": "弔事",
      "product": "喪服",
      "price": 13200.0,
      "date": "2023-10-10"
    },
    {
      "id": 3,
      "message": "弔事",
      "product": "喪服",
      "price": 13200.0,
      "date": "2023-10-10"
    },
    {
      "id": 4,
      "message": "弔事",
      "product": "喪服",
      "price": 13200.0,
      "date": "2023-10-10"
    },
    {
      "id": 5,
      "message": "弔事",
      "product": "喪服",
      "price": 13200.0,
      "date": "2023-10-10"
    },
    {
      "id": 6,
      "message": "弔事",
      "product": "喪服",
      "price": 13200.0,
      "date": "2023-10-10"
    },
    {
      "id": 7,
      "message": "弔事",
      "product": "喪服",
      "price": 13200.0,
      "date": "2023-10-10"
    },
    {
      "id": 8,
      "message": "弔事",
      "product": "喪服",
      "price": 13200.0,
      "date": "2023-10-10"
    },
    {
      "id": 9,
      "message": "弔事",
      "product": "喪服",
      "price": 13200.0,
      "date": "2023-10-10"
    },
    {
      "id": 10,
      "message": "弔事",
      "product": "喪服",
      "price": 13200.0,
      "date": "2023-10-10"
    }
  ]
}